EESchema Schematic File Version 4
LIBS:pd-fiddler-cache
EELAYER 30 0
EELAYER END
$Descr A4 11693 8268
encoding utf-8
Sheet 3 3
Title ""
Date ""
Rev ""
Comp ""
Comment1 ""
Comment2 ""
Comment3 ""
Comment4 ""
$EndDescr
$Comp
L Connector:USB_C_Receptacle J?
U 1 1 5D8698AD
P 1300 2050
AR Path="/5D8698AD" Ref="J?"  Part="1" 
AR Path="/5D86192C/5D8698AD" Ref="J301"  Part="1" 
F 0 "J301" H 1407 3317 50  0000 C CNN
F 1 "USB_C_Receptacle" H 1407 3226 50  0000 C CNN
F 2 "Connector_USB:USB_C_Receptacle_Amphenol_12401548E4-2A" H 1450 2050 50  0001 C CNN
F 3 "https://www.usb.org/sites/default/files/documents/usb_type-c.zip" H 1450 2050 50  0001 C CNN
	1    1300 2050
	1    0    0    -1  
$EndComp
Text Label 2000 1600 0    50   ~ 0
C_SBU1
Text Label 2000 1800 0    50   ~ 0
C_SBU2
Wire Wire Line
	1900 1750 1950 1750
Wire Wire Line
	1950 1750 1950 1800
Wire Wire Line
	1950 1850 1900 1850
Wire Wire Line
	2000 1800 1950 1800
Connection ~ 1950 1800
Wire Wire Line
	1950 1800 1950 1850
Wire Wire Line
	2000 1600 1950 1600
Wire Wire Line
	1950 1600 1950 1550
Wire Wire Line
	1950 1550 1900 1550
Wire Wire Line
	1900 1650 1950 1650
Wire Wire Line
	1950 1650 1950 1600
Connection ~ 1950 1600
Text Label 1900 1250 0    50   ~ 0
C_CC1
Text Label 1900 1350 0    50   ~ 0
C_CC2
$Comp
L power:GND #PWR?
U 1 1 5D8698C3
P 1300 3650
AR Path="/5D8698C3" Ref="#PWR?"  Part="1" 
AR Path="/5D86192C/5D8698C3" Ref="#PWR0108"  Part="1" 
F 0 "#PWR0108" H 1300 3400 50  0001 C CNN
F 1 "GND" H 1305 3477 50  0000 C CNN
F 2 "" H 1300 3650 50  0001 C CNN
F 3 "" H 1300 3650 50  0001 C CNN
	1    1300 3650
	1    0    0    -1  
$EndComp
$Comp
L power:GND #PWR?
U 1 1 5D8698C9
P 1000 3650
AR Path="/5D8698C9" Ref="#PWR?"  Part="1" 
AR Path="/5D86192C/5D8698C9" Ref="#PWR0109"  Part="1" 
F 0 "#PWR0109" H 1000 3400 50  0001 C CNN
F 1 "GND" H 1005 3477 50  0000 C CNN
F 2 "" H 1000 3650 50  0001 C CNN
F 3 "" H 1000 3650 50  0001 C CNN
	1    1000 3650
	1    0    0    -1  
$EndComp
NoConn ~ 1900 2050
NoConn ~ 1900 2150
NoConn ~ 1900 2350
NoConn ~ 1900 2450
NoConn ~ 1900 2650
NoConn ~ 1900 2750
NoConn ~ 1900 2950
NoConn ~ 1900 3050
NoConn ~ 1900 3250
NoConn ~ 1900 3350
$Comp
L power:GND #PWR0110
U 1 1 5D86EC8F
P 6850 4950
F 0 "#PWR0110" H 6850 4700 50  0001 C CNN
F 1 "GND" H 6855 4777 50  0000 C CNN
F 2 "" H 6850 4950 50  0001 C CNN
F 3 "" H 6850 4950 50  0001 C CNN
	1    6850 4950
	1    0    0    -1  
$EndComp
Text Label 3800 1900 0    50   ~ 0
VBUS1
$Comp
L Device:C_Small C307
U 1 1 5D870883
P 4100 2050
F 0 "C307" H 4192 2096 50  0000 L CNN
F 1 "1uF" H 4192 2005 50  0000 L CNN
F 2 "Capacitor_SMD:C_0603_1608Metric" H 4100 2050 50  0001 C CNN
F 3 "~" H 4100 2050 50  0001 C CNN
	1    4100 2050
	1    0    0    -1  
$EndComp
Wire Wire Line
	4100 1950 4100 1900
Connection ~ 4100 1900
Wire Wire Line
	4100 1900 3800 1900
$Comp
L power:GND #PWR0111
U 1 1 5D871535
P 4100 2200
F 0 "#PWR0111" H 4100 1950 50  0001 C CNN
F 1 "GND" H 4105 2027 50  0000 C CNN
F 2 "" H 4100 2200 50  0001 C CNN
F 3 "" H 4100 2200 50  0001 C CNN
	1    4100 2200
	1    0    0    -1  
$EndComp
Wire Wire Line
	4100 2200 4100 2150
Wire Wire Line
	3700 1650 3700 1900
$Comp
L power:GND #PWR0112
U 1 1 5D87400D
P 3700 1900
F 0 "#PWR0112" H 3700 1650 50  0001 C CNN
F 1 "GND" H 3705 1727 50  0000 C CNN
F 2 "" H 3700 1900 50  0001 C CNN
F 3 "" H 3700 1900 50  0001 C CNN
	1    3700 1900
	1    0    0    -1  
$EndComp
Wire Wire Line
	3700 1100 3700 1650
Connection ~ 3700 1650
$Comp
L Device:C_Small C303
U 1 1 5D878585
P 3550 1450
F 0 "C303" H 3459 1496 50  0000 R CNN
F 1 "10uF" H 3459 1405 50  0000 R CNN
F 2 "Capacitor_SMD:C_0603_1608Metric" H 3550 1450 50  0001 C CNN
F 3 "~" H 3550 1450 50  0001 C CNN
	1    3550 1450
	1    0    0    -1  
$EndComp
$Comp
L power:GND #PWR0113
U 1 1 5D883383
P 3550 1600
F 0 "#PWR0113" H 3550 1350 50  0001 C CNN
F 1 "GND" H 3555 1427 50  0000 C CNN
F 2 "" H 3550 1600 50  0001 C CNN
F 3 "" H 3550 1600 50  0001 C CNN
	1    3550 1600
	1    0    0    -1  
$EndComp
Wire Wire Line
	3550 1600 3550 1550
Text Label 3150 1300 0    50   ~ 0
PA_PP_HV
Wire Wire Line
	3150 1300 3550 1300
Wire Wire Line
	3550 1350 3550 1300
Connection ~ 3550 1300
$Comp
L Device:C_Small C309
U 1 1 5D887FD1
P 4750 2400
F 0 "C309" H 4659 2446 50  0000 R CNN
F 1 "10uF" H 4659 2355 50  0000 R CNN
F 2 "Capacitor_SMD:C_0603_1608Metric" H 4750 2400 50  0001 C CNN
F 3 "~" H 4750 2400 50  0001 C CNN
	1    4750 2400
	1    0    0    -1  
$EndComp
$Comp
L power:GND #PWR0114
U 1 1 5D887FD7
P 4750 2550
F 0 "#PWR0114" H 4750 2300 50  0001 C CNN
F 1 "GND" H 4755 2377 50  0000 C CNN
F 2 "" H 4750 2550 50  0001 C CNN
F 3 "" H 4750 2550 50  0001 C CNN
	1    4750 2550
	1    0    0    -1  
$EndComp
Wire Wire Line
	4750 2550 4750 2500
Text Label 4300 2250 0    50   ~ 0
PA_PP_HV
Wire Wire Line
	4300 2250 4750 2250
Wire Wire Line
	4750 2300 4750 2250
Wire Wire Line
	4750 2250 4900 2250
Connection ~ 4750 2250
$Comp
L Device:C_Small C304
U 1 1 5D893AD0
P 3600 3000
F 0 "C304" H 3509 3046 50  0000 R CNN
F 1 "10uF" H 3509 2955 50  0000 R CNN
F 2 "Capacitor_SMD:C_0603_1608Metric" H 3600 3000 50  0001 C CNN
F 3 "~" H 3600 3000 50  0001 C CNN
	1    3600 3000
	1    0    0    -1  
$EndComp
$Comp
L power:GND #PWR0115
U 1 1 5D893AD6
P 3600 3150
F 0 "#PWR0115" H 3600 2900 50  0001 C CNN
F 1 "GND" H 3605 2977 50  0000 C CNN
F 2 "" H 3600 3150 50  0001 C CNN
F 3 "" H 3600 3150 50  0001 C CNN
	1    3600 3150
	1    0    0    -1  
$EndComp
Wire Wire Line
	3600 3150 3600 3100
Text Label 3200 2850 0    50   ~ 0
LDO_3V3
Wire Wire Line
	3200 2850 3600 2850
Wire Wire Line
	3600 2900 3600 2850
Connection ~ 3600 2850
Wire Wire Line
	3600 2850 4900 2850
$Comp
L Device:C_Small C308
U 1 1 5D89610F
P 4100 3100
F 0 "C308" H 4192 3146 50  0000 L CNN
F 1 "10uF" H 4192 3055 50  0000 L CNN
F 2 "Capacitor_SMD:C_0603_1608Metric" H 4100 3100 50  0001 C CNN
F 3 "~" H 4100 3100 50  0001 C CNN
	1    4100 3100
	1    0    0    -1  
$EndComp
$Comp
L power:GND #PWR0116
U 1 1 5D896115
P 4100 3250
F 0 "#PWR0116" H 4100 3000 50  0001 C CNN
F 1 "GND" H 4105 3077 50  0000 C CNN
F 2 "" H 4100 3250 50  0001 C CNN
F 3 "" H 4100 3250 50  0001 C CNN
	1    4100 3250
	1    0    0    -1  
$EndComp
Wire Wire Line
	4100 3250 4100 3200
Text Label 3700 2950 0    50   ~ 0
LDO_1V8
Wire Wire Line
	3700 2950 4100 2950
Wire Wire Line
	4100 3000 4100 2950
Wire Wire Line
	4100 2950 4900 2950
Connection ~ 4100 2950
$Comp
L meansOfCircuitDesign:TPD6S300A U?
U 1 1 5D8A42D0
P 2000 5800
AR Path="/5D8A42D0" Ref="U?"  Part="1" 
AR Path="/5D86192C/5D8A42D0" Ref="U301"  Part="1" 
F 0 "U301" H 2000 5955 50  0000 C CNN
F 1 "TPD6S300A" H 2000 5864 50  0000 C CNN
F 2 "Package_DFN_QFN:QFN-20-1EP_3x3mm_P0.4mm_EP1.65x1.65mm" H 2150 5700 50  0001 C CNN
F 3 "https://www.ti.com/lit/ds/symlink/tpd6s300a.pdf" H 2000 5800 50  0001 C CNN
F 4 "TPD6S300ARUKR" H 2000 5773 50  0000 C CNN "MPN"
	1    2000 5800
	1    0    0    -1  
$EndComp
$Comp
L power:GND #PWR?
U 1 1 5D8A42D6
P 2050 7150
AR Path="/5D8A42D6" Ref="#PWR?"  Part="1" 
AR Path="/5D86192C/5D8A42D6" Ref="#PWR0117"  Part="1" 
F 0 "#PWR0117" H 2050 6900 50  0001 C CNN
F 1 "GND" H 2055 6977 50  0000 C CNN
F 2 "" H 2050 7150 50  0001 C CNN
F 3 "" H 2050 7150 50  0001 C CNN
	1    2050 7150
	1    0    0    -1  
$EndComp
Wire Wire Line
	1800 7000 1800 7100
Wire Wire Line
	1800 7100 1900 7100
Wire Wire Line
	2300 7100 2300 7000
Wire Wire Line
	2200 7000 2200 7100
Connection ~ 2200 7100
Wire Wire Line
	2200 7100 2300 7100
Wire Wire Line
	2100 7000 2100 7100
Connection ~ 2100 7100
Wire Wire Line
	2100 7100 2200 7100
Wire Wire Line
	2000 7000 2000 7100
Connection ~ 2000 7100
Wire Wire Line
	2000 7100 2050 7100
Wire Wire Line
	1900 7000 1900 7100
Connection ~ 1900 7100
Wire Wire Line
	1900 7100 2000 7100
Wire Wire Line
	2050 7150 2050 7100
Connection ~ 2050 7100
Wire Wire Line
	2050 7100 2100 7100
Text Label 1250 6000 2    50   ~ 0
C_SBU1
Text Label 1250 6100 2    50   ~ 0
C_SBU2
Text Label 1250 6200 2    50   ~ 0
C_CC1
Text Label 1250 6300 2    50   ~ 0
C_CC2
Text Label 1250 6600 2    50   ~ 0
C_SBU1
Text Label 1250 6700 2    50   ~ 0
C_SBU2
Text Label 4050 6100 0    50   ~ 0
CC1
Text Label 4050 6000 0    50   ~ 0
CC2
Text Label 4900 3150 2    50   ~ 0
CC1
Text Label 4900 3350 2    50   ~ 0
CC2
$Comp
L Device:C_Small C306
U 1 1 5D8A7009
P 4000 6250
F 0 "C306" H 4092 6296 50  0000 L CNN
F 1 "220pF" H 4092 6205 50  0000 L CNN
F 2 "Capacitor_SMD:C_0603_1608Metric" H 4000 6250 50  0001 C CNN
F 3 "~" H 4000 6250 50  0001 C CNN
	1    4000 6250
	1    0    0    -1  
$EndComp
$Comp
L Device:C_Small C305
U 1 1 5D8A805E
P 3850 6150
F 0 "C305" H 3650 6150 50  0000 L CNN
F 1 "220pF" H 3600 6050 50  0000 L CNN
F 2 "Capacitor_SMD:C_0603_1608Metric" H 3850 6150 50  0001 C CNN
F 3 "~" H 3850 6150 50  0001 C CNN
	1    3850 6150
	1    0    0    -1  
$EndComp
Wire Wire Line
	2750 6000 3850 6000
Wire Wire Line
	4050 6100 4000 6100
Wire Wire Line
	4000 6100 4000 6150
Connection ~ 4000 6100
Wire Wire Line
	4000 6100 2750 6100
Wire Wire Line
	3850 6050 3850 6000
Connection ~ 3850 6000
Wire Wire Line
	3850 6000 4050 6000
$Comp
L power:GND #PWR?
U 1 1 5D8B3C34
P 4000 6400
AR Path="/5D8B3C34" Ref="#PWR?"  Part="1" 
AR Path="/5D86192C/5D8B3C34" Ref="#PWR0118"  Part="1" 
F 0 "#PWR0118" H 4000 6150 50  0001 C CNN
F 1 "GND" H 4005 6227 50  0000 C CNN
F 2 "" H 4000 6400 50  0001 C CNN
F 3 "" H 4000 6400 50  0001 C CNN
	1    4000 6400
	1    0    0    -1  
$EndComp
$Comp
L power:GND #PWR?
U 1 1 5D8B418E
P 3850 6300
AR Path="/5D8B418E" Ref="#PWR?"  Part="1" 
AR Path="/5D86192C/5D8B418E" Ref="#PWR0119"  Part="1" 
F 0 "#PWR0119" H 3850 6050 50  0001 C CNN
F 1 "GND" H 3855 6127 50  0000 C CNN
F 2 "" H 3850 6300 50  0001 C CNN
F 3 "" H 3850 6300 50  0001 C CNN
	1    3850 6300
	1    0    0    -1  
$EndComp
Wire Wire Line
	3850 6300 3850 6250
Wire Wire Line
	4000 6400 4000 6350
Text Label 8100 1400 0    50   ~ 0
USB_N
Text Label 8100 1500 0    50   ~ 0
USB_P
Text Label 2750 6250 0    50   ~ 0
USB_N
Text Label 2750 6350 0    50   ~ 0
USB_P
Text Label 950  6400 2    50   ~ 0
C_CC2
Text Label 950  6500 2    50   ~ 0
C_CC1
$Comp
L Device:C_Small C302
U 1 1 5D8DDDA3
P 2800 6900
F 0 "C302" H 2892 6946 50  0000 L CNN
F 1 "?nF" H 2892 6855 50  0000 L CNN
F 2 "Capacitor_SMD:C_0603_1608Metric" H 2800 6900 50  0001 C CNN
F 3 "~" H 2800 6900 50  0001 C CNN
	1    2800 6900
	1    0    0    -1  
$EndComp
Wire Wire Line
	2750 6550 2800 6550
Wire Wire Line
	2800 6550 2800 6700
$Comp
L Device:R_Small R301
U 1 1 5D8E610C
P 2950 6550
F 0 "R301" V 2850 6550 50  0000 C CNN
F 1 "10k" V 2750 6550 50  0000 C CNN
F 2 "Resistor_SMD:R_0603_1608Metric" H 2950 6550 50  0001 C CNN
F 3 "~" H 2950 6550 50  0001 C CNN
	1    2950 6550
	0    -1   -1   0   
$EndComp
Wire Wire Line
	2800 6550 2850 6550
Connection ~ 2800 6550
Wire Wire Line
	2750 6450 3100 6450
Wire Wire Line
	3100 6450 3100 6550
Wire Wire Line
	3100 6450 3200 6450
Connection ~ 3100 6450
Text Label 3200 6450 0    50   ~ 0
~FAULT
$Comp
L power:GND #PWR?
U 1 1 5D8F97BF
P 2800 7050
AR Path="/5D8F97BF" Ref="#PWR?"  Part="1" 
AR Path="/5D86192C/5D8F97BF" Ref="#PWR0120"  Part="1" 
F 0 "#PWR0120" H 2800 6800 50  0001 C CNN
F 1 "GND" H 2805 6877 50  0000 C CNN
F 2 "" H 2800 7050 50  0001 C CNN
F 3 "" H 2800 7050 50  0001 C CNN
	1    2800 7050
	1    0    0    -1  
$EndComp
Wire Wire Line
	2800 7050 2800 7000
Wire Wire Line
	3050 6550 3100 6550
Wire Wire Line
	2800 6700 3200 6700
Connection ~ 2800 6700
Wire Wire Line
	2800 6700 2800 6800
$Comp
L Device:C_Small C301
U 1 1 5D90532A
P 1700 7150
F 0 "C301" H 1609 7196 50  0000 R CNN
F 1 "?nF" H 1609 7105 50  0000 R CNN
F 2 "Capacitor_SMD:C_0603_1608Metric" H 1700 7150 50  0001 C CNN
F 3 "~" H 1700 7150 50  0001 C CNN
	1    1700 7150
	1    0    0    -1  
$EndComp
$Comp
L power:GND #PWR?
U 1 1 5D905330
P 1700 7300
AR Path="/5D905330" Ref="#PWR?"  Part="1" 
AR Path="/5D86192C/5D905330" Ref="#PWR0121"  Part="1" 
F 0 "#PWR0121" H 1700 7050 50  0001 C CNN
F 1 "GND" H 1705 7127 50  0000 C CNN
F 2 "" H 1700 7300 50  0001 C CNN
F 3 "" H 1700 7300 50  0001 C CNN
	1    1700 7300
	1    0    0    -1  
$EndComp
Wire Wire Line
	1700 7300 1700 7250
Wire Wire Line
	1700 7000 1700 7050
Wire Notes Line
	600  7650 4450 7650
Wire Notes Line
	4450 7650 4450 5550
Wire Notes Line
	4450 5550 600  5550
Text Notes 600  5550 0    50   ~ 0
Short-to-VBUS, Overvoltage and ESD  Protection
Text Label 1900 1050 0    50   ~ 0
VBUS
Text Label 6300 4950 3    50   ~ 0
DRAIN1
Text Label 5750 4950 3    50   ~ 0
DRAIN2
Wire Wire Line
	5750 4750 5750 4850
Wire Wire Line
	6050 4750 6050 4850
Wire Wire Line
	6050 4850 5950 4850
Connection ~ 5750 4850
Wire Wire Line
	5750 4850 5750 4950
Wire Wire Line
	5850 4750 5850 4850
Connection ~ 5850 4850
Wire Wire Line
	5850 4850 5750 4850
Wire Wire Line
	5950 4750 5950 4850
Connection ~ 5950 4850
Wire Wire Line
	5950 4850 5850 4850
Wire Wire Line
	7350 4750 7350 4850
Wire Wire Line
	7350 4850 7250 4850
Wire Wire Line
	6850 4850 6850 4750
Wire Wire Line
	6850 4850 6850 4950
Connection ~ 6850 4850
Wire Wire Line
	6950 4750 6950 4850
Connection ~ 6950 4850
Wire Wire Line
	6950 4850 6850 4850
Wire Wire Line
	7050 4750 7050 4850
Connection ~ 7050 4850
Wire Wire Line
	7050 4850 6950 4850
Wire Wire Line
	7150 4750 7150 4850
Connection ~ 7150 4850
Wire Wire Line
	7150 4850 7050 4850
Wire Wire Line
	7250 4750 7250 4850
Connection ~ 7250 4850
Wire Wire Line
	7250 4850 7150 4850
Wire Wire Line
	6300 4750 6300 4850
Wire Wire Line
	6300 4850 6400 4850
Wire Wire Line
	6600 4850 6600 4750
Wire Wire Line
	6400 4750 6400 4850
Connection ~ 6400 4850
Wire Wire Line
	6400 4850 6500 4850
Wire Wire Line
	6500 4750 6500 4850
Connection ~ 6500 4850
Wire Wire Line
	6500 4850 6600 4850
Wire Wire Line
	6300 4850 6300 4950
Connection ~ 6300 4850
Text Label 3200 6700 0    50   ~ 0
+3V3
Wire Notes Line
	600  5550 600  7650
$Comp
L Device:Net-Tie_2 NT301
U 1 1 5D984163
P 1100 6400
F 0 "NT301" H 1100 6450 50  0000 C CNN
F 1 "0Ohm" H 1100 6490 50  0001 C CNN
F 2 "Automated:SolderJumper-2_P1.2mm_Bridged_Pad0.7x1.0mm" H 1100 6400 50  0001 C CNN
F 3 "~" H 1100 6400 50  0001 C CNN
	1    1100 6400
	1    0    0    -1  
$EndComp
$Comp
L Device:Net-Tie_2 NT302
U 1 1 5D984324
P 1100 6500
F 0 "NT302" H 1100 6550 50  0000 C CNN
F 1 "0Ohm" H 1100 6590 50  0001 C CNN
F 2 "Automated:SolderJumper-2_P1.2mm_Bridged_Pad0.7x1.0mm" H 1100 6500 50  0001 C CNN
F 3 "~" H 1100 6500 50  0001 C CNN
	1    1100 6500
	1    0    0    -1  
$EndComp
Wire Wire Line
	1250 6400 1200 6400
Wire Wire Line
	1250 6500 1200 6500
Wire Wire Line
	1000 6500 950  6500
Wire Wire Line
	1000 6400 950  6400
$Comp
L Device:R_Small R302
U 1 1 5D9AA4A6
P 8450 2850
F 0 "R302" V 8646 2850 50  0000 C CNN
F 1 "1M" V 8555 2850 50  0000 C CNN
F 2 "Resistor_SMD:R_0603_1608Metric" H 8450 2850 50  0001 C CNN
F 3 "~" H 8450 2850 50  0001 C CNN
	1    8450 2850
	0    -1   -1   0   
$EndComp
$Comp
L power:GND #PWR0122
U 1 1 5D9AB2D2
P 8600 2900
F 0 "#PWR0122" H 8600 2650 50  0001 C CNN
F 1 "GND" H 8605 2727 50  0000 C CNN
F 2 "" H 8600 2900 50  0001 C CNN
F 3 "" H 8600 2900 50  0001 C CNN
	1    8600 2900
	1    0    0    -1  
$EndComp
Wire Wire Line
	8600 2900 8600 2850
Wire Wire Line
	8600 2850 8550 2850
Wire Wire Line
	8350 2850 8100 2850
NoConn ~ 8100 2750
NoConn ~ 8100 2950
Text Label 4900 3600 2    50   ~ 0
HPD
NoConn ~ 4900 3700
NoConn ~ 4900 4000
NoConn ~ 4900 4100
NoConn ~ 4900 4200
NoConn ~ 8100 2550
NoConn ~ 8100 2450
NoConn ~ 8100 2350
NoConn ~ 8100 2250
NoConn ~ 8100 1200
NoConn ~ 8100 1100
NoConn ~ 8100 3700
$Comp
L Device:R_Small R303
U 1 1 5D9DCABD
P 8850 3650
F 0 "R303" H 8791 3696 50  0000 R CNN
F 1 "10k" H 8791 3605 50  0000 R CNN
F 2 "Resistor_SMD:R_0603_1608Metric" H 8850 3650 50  0001 C CNN
F 3 "~" H 8850 3650 50  0001 C CNN
	1    8850 3650
	1    0    0    -1  
$EndComp
$Comp
L Device:R_Small R304
U 1 1 5D9DE152
P 8950 3650
F 0 "R304" H 9009 3696 50  0000 L CNN
F 1 "10k" H 9009 3605 50  0000 L CNN
F 2 "Resistor_SMD:R_0603_1608Metric" H 8950 3650 50  0001 C CNN
F 3 "~" H 8950 3650 50  0001 C CNN
	1    8950 3650
	1    0    0    -1  
$EndComp
Wire Wire Line
	8850 3750 8850 3800
Wire Wire Line
	8850 3800 8100 3800
Wire Wire Line
	8100 3900 8950 3900
Wire Wire Line
	8950 3900 8950 3750
Text Label 9650 3750 0    50   ~ 0
+3V3
Wire Wire Line
	8850 3550 8850 3400
Wire Wire Line
	8850 3400 8950 3400
Wire Wire Line
	8950 3550 8950 3400
Text Label 8100 2050 0    50   ~ 0
HRESET
$Comp
L power:GND #PWR0123
U 1 1 5D9F1BA9
P 8350 3550
F 0 "#PWR0123" H 8350 3300 50  0001 C CNN
F 1 "GND" H 8355 3377 50  0000 C CNN
F 2 "" H 8350 3550 50  0001 C CNN
F 3 "" H 8350 3550 50  0001 C CNN
	1    8350 3550
	1    0    0    -1  
$EndComp
Wire Wire Line
	8350 3550 8350 3450
Wire Wire Line
	8350 3150 8100 3150
Wire Wire Line
	8100 3450 8350 3450
Connection ~ 8350 3450
Wire Wire Line
	8350 3450 8350 3350
Wire Wire Line
	8100 3350 8350 3350
Connection ~ 8350 3350
Wire Wire Line
	8350 3350 8350 3250
Wire Wire Line
	8100 3250 8350 3250
Connection ~ 8350 3250
Wire Wire Line
	8350 3250 8350 3150
$Comp
L Device:R_Small R305
U 1 1 5DA01EB5
P 9300 4000
F 0 "R305" H 9350 4150 50  0000 C CNN
F 1 "10k" H 9450 4300 50  0000 C CNN
F 2 "Resistor_SMD:R_0603_1608Metric" H 9300 4000 50  0001 C CNN
F 3 "~" H 9300 4000 50  0001 C CNN
	1    9300 4000
	1    0    0    -1  
$EndComp
$Comp
L Device:R_Small R306
U 1 1 5DA03045
P 9400 4000
F 0 "R306" H 9400 4150 50  0000 L CNN
F 1 "10k" H 9459 3955 50  0001 L CNN
F 2 "Resistor_SMD:R_0603_1608Metric" H 9400 4000 50  0001 C CNN
F 3 "~" H 9400 4000 50  0001 C CNN
	1    9400 4000
	1    0    0    -1  
$EndComp
$Comp
L Device:R_Small R307
U 1 1 5DA03476
P 9500 4000
F 0 "R307" H 9500 4150 50  0000 L CNN
F 1 "10k" H 9559 3955 50  0001 L CNN
F 2 "Resistor_SMD:R_0603_1608Metric" H 9500 4000 50  0001 C CNN
F 3 "~" H 9500 4000 50  0001 C CNN
	1    9500 4000
	1    0    0    -1  
$EndComp
Wire Wire Line
	8100 4150 9300 4150
Wire Wire Line
	9300 4150 9300 4100
Wire Wire Line
	9400 4100 9400 4250
Wire Wire Line
	9400 4250 8100 4250
Wire Wire Line
	9500 4100 9500 4350
Wire Wire Line
	9500 4350 8100 4350
Wire Wire Line
	9300 3750 9300 3900
Wire Wire Line
	9300 3750 9400 3750
Wire Wire Line
	9400 3900 9400 3750
Connection ~ 9400 3750
Wire Wire Line
	9400 3750 9500 3750
Wire Wire Line
	9500 3900 9500 3750
Connection ~ 9500 3750
Wire Wire Line
	9500 3750 9650 3750
Text Label 9100 3400 0    50   ~ 0
+3V3
Wire Wire Line
	8950 3400 9100 3400
NoConn ~ 8100 1700
NoConn ~ 8100 1800
Text Label 8750 4150 0    50   ~ 0
~IRQ
Text Label 8750 4250 0    50   ~ 0
SDA
Text Label 8750 4350 0    50   ~ 0
SCL
$Comp
L meansOfCircuitDesign:TPS65987D U302
U 1 1 5D869C1E
P 6450 2750
F 0 "U302" H 6500 4757 50  0000 C CNN
F 1 "TPS65987D" H 6500 4666 50  0000 C CNN
F 2 "Automated:TI_VQFN-56_EP_7x7_Pitch0.4mm_RSH0056E" H 6000 3100 50  0001 L CNN
F 3 "https://www.ti.com/lit/ds/symlink/tps65987d.pdf" H 6000 3100 50  0001 L CNN
F 4 "TPS65987DDHRSHR" H 6500 4575 50  0000 C CNN "MPN"
	1    6450 2750
	1    0    0    -1  
$EndComp
Wire Wire Line
	3700 1100 4900 1100
Wire Wire Line
	3550 1300 4900 1300
Wire Wire Line
	3700 1650 4900 1650
Wire Wire Line
	4100 1900 4900 1900
$EndSCHEMATC
