EESchema Schematic File Version 4
EELAYER 30 0
EELAYER END
$Descr A4 11693 8268
encoding utf-8
Sheet 1 2
Title ""
Date ""
Rev ""
Comp ""
Comment1 ""
Comment2 ""
Comment3 ""
Comment4 ""
$EndDescr
$Sheet
S 500  500  1850 1850
U 5E234A27
F0 "Subcircuit One" 50
F1 "subckt1.sch" 50
$EndSheet
$EndSCHEMATC
