(kicad_pcb (version 20171130) (host pcbnew 5.1.5)

  (general
    (thickness 1.6)
    (drawings 0)
    (tracks 14)
    (zones 0)
    (modules 6)
    (nets 5)
  )

  (page A4)
  (layers
    (0 F.Cu signal)
    (31 B.Cu signal)
    (32 B.Adhes user)
    (33 F.Adhes user)
    (34 B.Paste user)
    (35 F.Paste user)
    (36 B.SilkS user)
    (37 F.SilkS user)
    (38 B.Mask user)
    (39 F.Mask user)
    (40 Dwgs.User user)
    (41 Cmts.User user)
    (42 Eco1.User user)
    (43 Eco2.User user)
    (44 Edge.Cuts user)
    (45 Margin user)
    (46 B.CrtYd user)
    (47 F.CrtYd user)
    (48 B.Fab user)
    (49 F.Fab user)
  )

  (setup
    (last_trace_width 0.25)
    (trace_clearance 0.2)
    (zone_clearance 0.508)
    (zone_45_only no)
    (trace_min 0.2)
    (via_size 0.8)
    (via_drill 0.4)
    (via_min_size 0.4)
    (via_min_drill 0.3)
    (uvia_size 0.3)
    (uvia_drill 0.1)
    (uvias_allowed no)
    (uvia_min_size 0.2)
    (uvia_min_drill 0.1)
    (edge_width 0.05)
    (segment_width 0.2)
    (pcb_text_width 0.3)
    (pcb_text_size 1.5 1.5)
    (mod_edge_width 0.12)
    (mod_text_size 1 1)
    (mod_text_width 0.15)
    (pad_size 1.524 1.524)
    (pad_drill 0.762)
    (pad_to_mask_clearance 0.051)
    (solder_mask_min_width 0.25)
    (aux_axis_origin 0 0)
    (visible_elements FFFFFF7F)
    (pcbplotparams
      (layerselection 0x010fc_ffffffff)
      (usegerberextensions false)
      (usegerberattributes false)
      (usegerberadvancedattributes false)
      (creategerberjobfile false)
      (excludeedgelayer true)
      (linewidth 0.100000)
      (plotframeref false)
      (viasonmask false)
      (mode 1)
      (useauxorigin false)
      (hpglpennumber 1)
      (hpglpenspeed 20)
      (hpglpendiameter 15.000000)
      (psnegative false)
      (psa4output false)
      (plotreference true)
      (plotvalue true)
      (plotinvisibletext false)
      (padsonsilk false)
      (subtractmaskfromsilk false)
      (outputformat 1)
      (mirror false)
      (drillshape 1)
      (scaleselection 1)
      (outputdirectory ""))
  )

  (net 0 "")
  (net 1 /EGND)
  (net 2 /EVIN)
  (net 3 /EVOUT)
  (net 4 "/Test Sheet/SOME_INTERNAL_NET")

  (net_class Default "This is the default net class."
    (clearance 0.2)
    (trace_width 0.25)
    (via_dia 0.8)
    (via_drill 0.4)
    (uvia_dia 0.3)
    (uvia_drill 0.1)
    (add_net /EGND)
    (add_net /EVIN)
    (add_net /EVOUT)
    (add_net "/Test Sheet/SOME_INTERNAL_NET")
  )

  (module Resistor_SMD:R_1806_4516Metric (layer F.Cu) (tedit 5B301BBD) (tstamp 5E26D6D2)
    (at 133.75 92 90)
    (descr "Resistor SMD 1806 (4516 Metric), square (rectangular) end terminal, IPC_7351 nominal, (Body size source: https://www.modelithics.com/models/Vendor/MuRata/BLM41P.pdf), generated with kicad-footprint-generator")
    (tags resistor)
    (path /5E2671D2/5E26DFA2)
    (attr smd)
    (fp_text reference R202 (at 0 -1.85 90) (layer F.SilkS)
      (effects (font (size 1 1) (thickness 0.15)))
    )
    (fp_text value R_Small (at 0 1.85 90) (layer F.Fab)
      (effects (font (size 1 1) (thickness 0.15)))
    )
    (fp_text user %R (at 0 0 90) (layer F.Fab)
      (effects (font (size 1 1) (thickness 0.15)))
    )
    (fp_line (start 2.95 1.15) (end -2.95 1.15) (layer F.CrtYd) (width 0.05))
    (fp_line (start 2.95 -1.15) (end 2.95 1.15) (layer F.CrtYd) (width 0.05))
    (fp_line (start -2.95 -1.15) (end 2.95 -1.15) (layer F.CrtYd) (width 0.05))
    (fp_line (start -2.95 1.15) (end -2.95 -1.15) (layer F.CrtYd) (width 0.05))
    (fp_line (start -1.111252 0.91) (end 1.111252 0.91) (layer F.SilkS) (width 0.12))
    (fp_line (start -1.111252 -0.91) (end 1.111252 -0.91) (layer F.SilkS) (width 0.12))
    (fp_line (start 2.25 0.8) (end -2.25 0.8) (layer F.Fab) (width 0.1))
    (fp_line (start 2.25 -0.8) (end 2.25 0.8) (layer F.Fab) (width 0.1))
    (fp_line (start -2.25 -0.8) (end 2.25 -0.8) (layer F.Fab) (width 0.1))
    (fp_line (start -2.25 0.8) (end -2.25 -0.8) (layer F.Fab) (width 0.1))
    (pad 2 smd roundrect (at 2 0 90) (size 1.4 1.8) (layers F.Cu F.Paste F.Mask) (roundrect_rratio 0.178571)
      (net 3 /EVOUT))
    (pad 1 smd roundrect (at -2 0 90) (size 1.4 1.8) (layers F.Cu F.Paste F.Mask) (roundrect_rratio 0.178571)
      (net 4 "/Test Sheet/SOME_INTERNAL_NET"))
    (model ${KISYS3DMOD}/Resistor_SMD.3dshapes/R_1806_4516Metric.wrl
      (at (xyz 0 0 0))
      (scale (xyz 1 1 1))
      (rotate (xyz 0 0 0))
    )
  )

  (module Resistor_SMD:R_0201_0603Metric (layer F.Cu) (tedit 5B301BBD) (tstamp 5E26D613)
    (at 134.5 95.75 90)
    (descr "Resistor SMD 0201 (0603 Metric), square (rectangular) end terminal, IPC_7351 nominal, (Body size source: https://www.vishay.com/docs/20052/crcw0201e3.pdf), generated with kicad-footprint-generator")
    (tags resistor)
    (path /5E2671D2/5E26DAE8)
    (attr smd)
    (fp_text reference R201 (at 0 -1.05 90) (layer F.SilkS)
      (effects (font (size 1 1) (thickness 0.15)))
    )
    (fp_text value R_Small (at 0 1.05 90) (layer F.Fab)
      (effects (font (size 1 1) (thickness 0.15)))
    )
    (fp_text user %R (at 0 -0.68 90) (layer F.Fab)
      (effects (font (size 0.25 0.25) (thickness 0.04)))
    )
    (fp_line (start 0.7 0.35) (end -0.7 0.35) (layer F.CrtYd) (width 0.05))
    (fp_line (start 0.7 -0.35) (end 0.7 0.35) (layer F.CrtYd) (width 0.05))
    (fp_line (start -0.7 -0.35) (end 0.7 -0.35) (layer F.CrtYd) (width 0.05))
    (fp_line (start -0.7 0.35) (end -0.7 -0.35) (layer F.CrtYd) (width 0.05))
    (fp_line (start 0.3 0.15) (end -0.3 0.15) (layer F.Fab) (width 0.1))
    (fp_line (start 0.3 -0.15) (end 0.3 0.15) (layer F.Fab) (width 0.1))
    (fp_line (start -0.3 -0.15) (end 0.3 -0.15) (layer F.Fab) (width 0.1))
    (fp_line (start -0.3 0.15) (end -0.3 -0.15) (layer F.Fab) (width 0.1))
    (pad 2 smd roundrect (at 0.32 0 90) (size 0.46 0.4) (layers F.Cu F.Mask) (roundrect_rratio 0.25)
      (net 4 "/Test Sheet/SOME_INTERNAL_NET"))
    (pad 1 smd roundrect (at -0.32 0 90) (size 0.46 0.4) (layers F.Cu F.Mask) (roundrect_rratio 0.25)
      (net 2 /EVIN))
    (pad "" smd roundrect (at 0.345 0 90) (size 0.318 0.36) (layers F.Paste) (roundrect_rratio 0.25))
    (pad "" smd roundrect (at -0.345 0 90) (size 0.318 0.36) (layers F.Paste) (roundrect_rratio 0.25))
    (model ${KISYS3DMOD}/Resistor_SMD.3dshapes/R_0201_0603Metric.wrl
      (at (xyz 0 0 0))
      (scale (xyz 1 1 1))
      (rotate (xyz 0 0 0))
    )
  )

  (module Capacitor_SMD:C_0603_1608Metric (layer F.Cu) (tedit 5B301BBE) (tstamp 5E267118)
    (at 136.25 95.25 90)
    (descr "Capacitor SMD 0603 (1608 Metric), square (rectangular) end terminal, IPC_7351 nominal, (Body size source: http://www.tortai-tech.com/upload/download/2011102023233369053.pdf), generated with kicad-footprint-generator")
    (tags capacitor)
    (path /5E26D017)
    (attr smd)
    (fp_text reference C101 (at 0 -1.43 90) (layer F.SilkS)
      (effects (font (size 1 1) (thickness 0.15)))
    )
    (fp_text value 1uF (at 0 1.43 90) (layer F.Fab)
      (effects (font (size 1 1) (thickness 0.15)))
    )
    (fp_text user %R (at 0 0 90) (layer F.Fab)
      (effects (font (size 0.4 0.4) (thickness 0.06)))
    )
    (fp_line (start 1.48 0.73) (end -1.48 0.73) (layer F.CrtYd) (width 0.05))
    (fp_line (start 1.48 -0.73) (end 1.48 0.73) (layer F.CrtYd) (width 0.05))
    (fp_line (start -1.48 -0.73) (end 1.48 -0.73) (layer F.CrtYd) (width 0.05))
    (fp_line (start -1.48 0.73) (end -1.48 -0.73) (layer F.CrtYd) (width 0.05))
    (fp_line (start -0.162779 0.51) (end 0.162779 0.51) (layer F.SilkS) (width 0.12))
    (fp_line (start -0.162779 -0.51) (end 0.162779 -0.51) (layer F.SilkS) (width 0.12))
    (fp_line (start 0.8 0.4) (end -0.8 0.4) (layer F.Fab) (width 0.1))
    (fp_line (start 0.8 -0.4) (end 0.8 0.4) (layer F.Fab) (width 0.1))
    (fp_line (start -0.8 -0.4) (end 0.8 -0.4) (layer F.Fab) (width 0.1))
    (fp_line (start -0.8 0.4) (end -0.8 -0.4) (layer F.Fab) (width 0.1))
    (pad 2 smd roundrect (at 0.7875 0 90) (size 0.875 0.95) (layers F.Cu F.Paste F.Mask) (roundrect_rratio 0.25)
      (net 1 /EGND))
    (pad 1 smd roundrect (at -0.7875 0 90) (size 0.875 0.95) (layers F.Cu F.Paste F.Mask) (roundrect_rratio 0.25)
      (net 2 /EVIN))
    (model ${KISYS3DMOD}/Capacitor_SMD.3dshapes/C_0603_1608Metric.wrl
      (at (xyz 0 0 0))
      (scale (xyz 1 1 1))
      (rotate (xyz 0 0 0))
    )
  )

  (module Package_TO_SOT_SMD:SOT-223-3_TabPin2 (layer F.Cu) (tedit 5A02FF57) (tstamp 5E266ECF)
    (at 143.07 93.12)
    (descr "module CMS SOT223 4 pins")
    (tags "CMS SOT")
    (path /5E2671D2/5E246B49)
    (attr smd)
    (fp_text reference U201 (at 0 -4.5) (layer F.SilkS)
      (effects (font (size 1 1) (thickness 0.15)))
    )
    (fp_text value NCP1117-3.3_SOT223 (at 0 4.5) (layer F.Fab)
      (effects (font (size 1 1) (thickness 0.15)))
    )
    (fp_line (start 1.85 -3.35) (end 1.85 3.35) (layer F.Fab) (width 0.1))
    (fp_line (start -1.85 3.35) (end 1.85 3.35) (layer F.Fab) (width 0.1))
    (fp_line (start -4.1 -3.41) (end 1.91 -3.41) (layer F.SilkS) (width 0.12))
    (fp_line (start -0.85 -3.35) (end 1.85 -3.35) (layer F.Fab) (width 0.1))
    (fp_line (start -1.85 3.41) (end 1.91 3.41) (layer F.SilkS) (width 0.12))
    (fp_line (start -1.85 -2.35) (end -1.85 3.35) (layer F.Fab) (width 0.1))
    (fp_line (start -1.85 -2.35) (end -0.85 -3.35) (layer F.Fab) (width 0.1))
    (fp_line (start -4.4 -3.6) (end -4.4 3.6) (layer F.CrtYd) (width 0.05))
    (fp_line (start -4.4 3.6) (end 4.4 3.6) (layer F.CrtYd) (width 0.05))
    (fp_line (start 4.4 3.6) (end 4.4 -3.6) (layer F.CrtYd) (width 0.05))
    (fp_line (start 4.4 -3.6) (end -4.4 -3.6) (layer F.CrtYd) (width 0.05))
    (fp_line (start 1.91 -3.41) (end 1.91 -2.15) (layer F.SilkS) (width 0.12))
    (fp_line (start 1.91 3.41) (end 1.91 2.15) (layer F.SilkS) (width 0.12))
    (fp_text user %R (at 0 0 90) (layer F.Fab)
      (effects (font (size 0.8 0.8) (thickness 0.12)))
    )
    (pad 1 smd rect (at -3.15 -2.3) (size 2 1.5) (layers F.Cu F.Paste F.Mask)
      (net 1 /EGND))
    (pad 3 smd rect (at -3.15 2.3) (size 2 1.5) (layers F.Cu F.Paste F.Mask)
      (net 2 /EVIN))
    (pad 2 smd rect (at -3.15 0) (size 2 1.5) (layers F.Cu F.Paste F.Mask)
      (net 3 /EVOUT))
    (pad 2 smd rect (at 3.15 0) (size 2 3.8) (layers F.Cu F.Paste F.Mask)
      (net 3 /EVOUT))
    (model ${KISYS3DMOD}/Package_TO_SOT_SMD.3dshapes/SOT-223.wrl
      (at (xyz 0 0 0))
      (scale (xyz 1 1 1))
      (rotate (xyz 0 0 0))
    )
  )

  (module Capacitor_SMD:C_0603_1608Metric (layer F.Cu) (tedit 5B301BBE) (tstamp 5E266EB9)
    (at 137.75 92.25 90)
    (descr "Capacitor SMD 0603 (1608 Metric), square (rectangular) end terminal, IPC_7351 nominal, (Body size source: http://www.tortai-tech.com/upload/download/2011102023233369053.pdf), generated with kicad-footprint-generator")
    (tags capacitor)
    (path /5E2671D2/5E24895C)
    (attr smd)
    (fp_text reference C202 (at 0 -1.43 90) (layer F.SilkS)
      (effects (font (size 1 1) (thickness 0.15)))
    )
    (fp_text value 1uF (at 0 1.43 90) (layer F.Fab)
      (effects (font (size 1 1) (thickness 0.15)))
    )
    (fp_text user %R (at 0 0 90) (layer F.Fab)
      (effects (font (size 0.4 0.4) (thickness 0.06)))
    )
    (fp_line (start 1.48 0.73) (end -1.48 0.73) (layer F.CrtYd) (width 0.05))
    (fp_line (start 1.48 -0.73) (end 1.48 0.73) (layer F.CrtYd) (width 0.05))
    (fp_line (start -1.48 -0.73) (end 1.48 -0.73) (layer F.CrtYd) (width 0.05))
    (fp_line (start -1.48 0.73) (end -1.48 -0.73) (layer F.CrtYd) (width 0.05))
    (fp_line (start -0.162779 0.51) (end 0.162779 0.51) (layer F.SilkS) (width 0.12))
    (fp_line (start -0.162779 -0.51) (end 0.162779 -0.51) (layer F.SilkS) (width 0.12))
    (fp_line (start 0.8 0.4) (end -0.8 0.4) (layer F.Fab) (width 0.1))
    (fp_line (start 0.8 -0.4) (end 0.8 0.4) (layer F.Fab) (width 0.1))
    (fp_line (start -0.8 -0.4) (end 0.8 -0.4) (layer F.Fab) (width 0.1))
    (fp_line (start -0.8 0.4) (end -0.8 -0.4) (layer F.Fab) (width 0.1))
    (pad 2 smd roundrect (at 0.7875 0 90) (size 0.875 0.95) (layers F.Cu F.Paste F.Mask) (roundrect_rratio 0.25)
      (net 1 /EGND))
    (pad 1 smd roundrect (at -0.7875 0 90) (size 0.875 0.95) (layers F.Cu F.Paste F.Mask) (roundrect_rratio 0.25)
      (net 3 /EVOUT))
    (model ${KISYS3DMOD}/Capacitor_SMD.3dshapes/C_0603_1608Metric.wrl
      (at (xyz 0 0 0))
      (scale (xyz 1 1 1))
      (rotate (xyz 0 0 0))
    )
  )

  (module Capacitor_SMD:C_0603_1608Metric (layer F.Cu) (tedit 5B301BBE) (tstamp 5E266EA8)
    (at 137.75 95.25 90)
    (descr "Capacitor SMD 0603 (1608 Metric), square (rectangular) end terminal, IPC_7351 nominal, (Body size source: http://www.tortai-tech.com/upload/download/2011102023233369053.pdf), generated with kicad-footprint-generator")
    (tags capacitor)
    (path /5E2671D2/5E248390)
    (attr smd)
    (fp_text reference C201 (at 0 -1.43 90) (layer F.SilkS)
      (effects (font (size 1 1) (thickness 0.15)))
    )
    (fp_text value 1uF (at 0 1.43 90) (layer F.Fab)
      (effects (font (size 1 1) (thickness 0.15)))
    )
    (fp_text user %R (at 0 0 90) (layer F.Fab)
      (effects (font (size 0.4 0.4) (thickness 0.06)))
    )
    (fp_line (start 1.48 0.73) (end -1.48 0.73) (layer F.CrtYd) (width 0.05))
    (fp_line (start 1.48 -0.73) (end 1.48 0.73) (layer F.CrtYd) (width 0.05))
    (fp_line (start -1.48 -0.73) (end 1.48 -0.73) (layer F.CrtYd) (width 0.05))
    (fp_line (start -1.48 0.73) (end -1.48 -0.73) (layer F.CrtYd) (width 0.05))
    (fp_line (start -0.162779 0.51) (end 0.162779 0.51) (layer F.SilkS) (width 0.12))
    (fp_line (start -0.162779 -0.51) (end 0.162779 -0.51) (layer F.SilkS) (width 0.12))
    (fp_line (start 0.8 0.4) (end -0.8 0.4) (layer F.Fab) (width 0.1))
    (fp_line (start 0.8 -0.4) (end 0.8 0.4) (layer F.Fab) (width 0.1))
    (fp_line (start -0.8 -0.4) (end 0.8 -0.4) (layer F.Fab) (width 0.1))
    (fp_line (start -0.8 0.4) (end -0.8 -0.4) (layer F.Fab) (width 0.1))
    (pad 2 smd roundrect (at 0.7875 0 90) (size 0.875 0.95) (layers F.Cu F.Paste F.Mask) (roundrect_rratio 0.25)
      (net 1 /EGND))
    (pad 1 smd roundrect (at -0.7875 0 90) (size 0.875 0.95) (layers F.Cu F.Paste F.Mask) (roundrect_rratio 0.25)
      (net 2 /EVIN))
    (model ${KISYS3DMOD}/Capacitor_SMD.3dshapes/C_0603_1608Metric.wrl
      (at (xyz 0 0 0))
      (scale (xyz 1 1 1))
      (rotate (xyz 0 0 0))
    )
  )

  (segment (start 137.75 96.0375) (end 139.3025 96.0375) (width 0.8) (layer F.Cu) (net 2) (status 1000000))
  (segment (start 136.2175 96.07) (end 136.25 96.0375) (width 0.25) (layer F.Cu) (net 2))
  (segment (start 134.5 96.07) (end 136.2175 96.07) (width 0.25) (layer F.Cu) (net 2))
  (segment (start 139.3025 96.0375) (end 139.92 95.42) (width 0.25) (layer F.Cu) (net 2))
  (segment (start 136.25 96.0375) (end 139.3025 96.0375) (width 0.25) (layer F.Cu) (net 2))
  (segment (start 133.75 89.3) (end 135.05 88) (width 0.25) (layer F.Cu) (net 3))
  (segment (start 133.75 90) (end 133.75 89.3) (width 0.25) (layer F.Cu) (net 3))
  (segment (start 135.05 88) (end 143 88) (width 0.25) (layer F.Cu) (net 3))
  (segment (start 143 88) (end 143.75 88.75) (width 0.25) (layer F.Cu) (net 3))
  (segment (start 144.97 93.12) (end 146.22 93.12) (width 0.25) (layer F.Cu) (net 3))
  (segment (start 143.75 91.9) (end 144.97 93.12) (width 0.25) (layer F.Cu) (net 3))
  (segment (start 143.75 88.75) (end 143.75 91.9) (width 0.25) (layer F.Cu) (net 3))
  (segment (start 133.75 94.68) (end 134.5 95.43) (width 0.25) (layer F.Cu) (net 4))
  (segment (start 133.75 94) (end 133.75 94.68) (width 0.25) (layer F.Cu) (net 4))

  (zone (net 3) (net_name /EVOUT) (layer F.Cu) (tstamp 0) (hatch edge 0.508)
    (priority 1)
    (connect_pads thru_hole_only (clearance 0.508))
    (min_thickness 0.254)
    (fill yes (arc_segments 32) (thermal_gap 0.508) (thermal_bridge_width 0.508))
    (polygon
      (pts
        (xy 147.25 97.1) (xy 136.8 97.1) (xy 136.8 89.95) (xy 147.25 89.95)
      )
    )
    (filled_polygon
      (pts
        (xy 147.123 96.973) (xy 138.474176 96.973) (xy 138.482275 96.968671) (xy 138.612115 96.862115) (xy 138.665143 96.7975)
        (xy 138.812657 96.7975) (xy 138.92 96.808072) (xy 140.92 96.808072) (xy 141.044482 96.795812) (xy 141.16418 96.759502)
        (xy 141.274494 96.700537) (xy 141.371185 96.621185) (xy 141.450537 96.524494) (xy 141.509502 96.41418) (xy 141.545812 96.294482)
        (xy 141.558072 96.17) (xy 141.558072 94.67) (xy 141.545812 94.545518) (xy 141.509502 94.42582) (xy 141.450537 94.315506)
        (xy 141.371185 94.218815) (xy 141.274494 94.139463) (xy 141.16418 94.080498) (xy 141.044482 94.044188) (xy 140.92 94.031928)
        (xy 139.135 94.031928) (xy 139.135 94) (xy 139.122799 93.876118) (xy 139.086664 93.756996) (xy 139.027983 93.647213)
        (xy 138.949013 93.550987) (xy 138.852787 93.472017) (xy 138.743004 93.413336) (xy 138.623882 93.377201) (xy 138.5 93.365)
        (xy 137.135 93.365) (xy 137.135 92.635) (xy 142.5 92.635) (xy 142.623882 92.622799) (xy 142.743004 92.586664)
        (xy 142.852787 92.527983) (xy 142.949013 92.449013) (xy 143.027983 92.352787) (xy 143.086664 92.243004) (xy 143.122799 92.123882)
        (xy 143.135 92) (xy 143.135 90.077) (xy 147.123 90.077)
      )
    )
  )
  (zone (net 1) (net_name /EGND) (layer F.Cu) (tstamp 0) (hatch edge 0.508)
    (priority 2)
    (connect_pads thru_hole_only (clearance 0.508))
    (min_thickness 0.254)
    (fill yes (arc_segments 32) (thermal_gap 0.508) (thermal_bridge_width 0.508))
    (polygon
      (pts
        (xy 142.5 92) (xy 136.5 92) (xy 136.5 94) (xy 138.5 94) (xy 138.5 95.5)
        (xy 135 95.5) (xy 135 88.5) (xy 142.5 88.5)
      )
    )
    (filled_polygon
      (pts
        (xy 142.373 91.873) (xy 141.315359 91.873) (xy 141.274494 91.839463) (xy 141.16418 91.780498) (xy 141.044482 91.744188)
        (xy 140.92 91.731928) (xy 138.92 91.731928) (xy 138.795518 91.744188) (xy 138.67582 91.780498) (xy 138.565506 91.839463)
        (xy 138.524641 91.873) (xy 136.5 91.873) (xy 136.475224 91.87544) (xy 136.451399 91.882667) (xy 136.429443 91.894403)
        (xy 136.410197 91.910197) (xy 136.394403 91.929443) (xy 136.382667 91.951399) (xy 136.37544 91.975224) (xy 136.373 92)
        (xy 136.373 94) (xy 136.37544 94.024776) (xy 136.382667 94.048601) (xy 136.394403 94.070557) (xy 136.410197 94.089803)
        (xy 136.429443 94.105597) (xy 136.451399 94.117333) (xy 136.475224 94.12456) (xy 136.5 94.127) (xy 138.337351 94.127)
        (xy 138.373 94.193694) (xy 138.373 94.346306) (xy 138.330498 94.42582) (xy 138.294188 94.545518) (xy 138.281928 94.67)
        (xy 138.281928 95.011311) (xy 138.173408 94.978392) (xy 138.00625 94.961928) (xy 137.49375 94.961928) (xy 137.326592 94.978392)
        (xy 137.165858 95.02715) (xy 137.017725 95.106329) (xy 136.887885 95.212885) (xy 136.781329 95.342725) (xy 136.765147 95.373)
        (xy 135.127 95.373) (xy 135.127 88.627) (xy 142.373 88.627)
      )
    )
  )
)
